<?xml version="1.0" encoding="UTF-8" standalone="no"?>
<!-- Created with Inkscape (http://www.inkscape.org/) -->

<svg
   width="340"
   height="108"
   viewBox="0 0 89.958335 28.575"
   version="1.1"
   id="svg3474"
   inkscape:version="1.2.2 (b0a8486541, 2022-12-01)"
   sodipodi:docname="cancel_text.svg"
   xml:space="preserve"
   inkscape:export-filename="cancel_text.png"
   inkscape:export-xdpi="96"
   inkscape:export-ydpi="96"
   xmlns:inkscape="http://www.inkscape.org/namespaces/inkscape"
   xmlns:sodipodi="http://sodipodi.sourceforge.net/DTD/sodipodi-0.dtd"
   xmlns="http://www.w3.org/2000/svg"
   xmlns:svg="http://www.w3.org/2000/svg"><sodipodi:namedview
     id="namedview3476"
     pagecolor="#ffffff"
     bordercolor="#666666"
     borderopacity="1.0"
     inkscape:showpageshadow="2"
     inkscape:pageopacity="0.0"
     inkscape:pagecheckerboard="0"
     inkscape:deskcolor="#d1d1d1"
     inkscape:document-units="px"
     showgrid="true"
     inkscape:zoom="1.829812"
     inkscape:cx="351.94872"
     inkscape:cy="-21.313665"
     inkscape:window-width="2514"
     inkscape:window-height="1409"
     inkscape:window-x="46"
     inkscape:window-y="0"
     inkscape:window-maximized="1"
     inkscape:current-layer="layer1"
     showguides="true"><inkscape:grid
       type="xygrid"
       id="grid3595"
       spacingx="89.958334"
       spacingy="28.575"
       originx="44.979167"
       originy="17.4625" /></sodipodi:namedview><defs
     id="defs3471" /><g
     inkscape:label="Layer 1"
     inkscape:groupmode="layer"
     id="layer1"><text
       xml:space="preserve"
       style="font-weight:600;font-size:9.17222px;line-height:1.25;font-family:Figtree;-inkscape-font-specification:'Figtree Semi-Bold';stroke-width:0.264583"
       x="44.979164"
       y="17.352434"
       id="text3695"><tspan
         sodipodi:role="line"
         id="tspan3693"
         style="font-style:normal;font-variant:normal;font-weight:500;font-stretch:normal;font-size:9.17222px;font-family:Figtree;-inkscape-font-specification:'Figtree Medium';text-align:center;text-anchor:middle;fill:#adaeae;fill-opacity:1;stroke-width:0.264583"
         x="44.979164"
         y="17.352434">Cancel</tspan></text></g></svg>
