<?xml version="1.0" encoding="UTF-8" standalone="no"?>
<!-- Created with Inkscape (http://www.inkscape.org/) -->

<svg
   width="276"
   height="392"
   viewBox="0 0 73.024998 103.71667"
   version="1.1"
   id="svg5"
   xml:space="preserve"
   inkscape:version="1.2.2 (b0a8486541, 2022-12-01)"
   sodipodi:docname="judge_text.svg"
   inkscape:export-filename="judge_text.png"
   inkscape:export-xdpi="96"
   inkscape:export-ydpi="96"
   xmlns:inkscape="http://www.inkscape.org/namespaces/inkscape"
   xmlns:sodipodi="http://sodipodi.sourceforge.net/DTD/sodipodi-0.dtd"
   xmlns:xlink="http://www.w3.org/1999/xlink"
   xmlns="http://www.w3.org/2000/svg"
   xmlns:svg="http://www.w3.org/2000/svg"><sodipodi:namedview
     id="namedview7"
     pagecolor="#000000"
     bordercolor="#666666"
     borderopacity="1.0"
     inkscape:showpageshadow="2"
     inkscape:pageopacity="0"
     inkscape:pagecheckerboard="0"
     inkscape:deskcolor="#d1d1d1"
     inkscape:document-units="px"
     showgrid="false"
     inkscape:zoom="1.829812"
     inkscape:cx="115.31239"
     inkscape:cy="242.64788"
     inkscape:window-width="2514"
     inkscape:window-height="1409"
     inkscape:window-x="46"
     inkscape:window-y="0"
     inkscape:window-maximized="1"
     inkscape:current-layer="layer1" /><defs
     id="defs2" /><g
     inkscape:label="Layer 1"
     inkscape:groupmode="layer"
     id="layer1"><text
       xml:space="preserve"
       style="font-size:5.64444px;line-height:1.25;font-family:Broadsheet;-inkscape-font-specification:Broadsheet;text-align:center;letter-spacing:0.632354px;text-anchor:middle;fill:#ffffff;fill-opacity:0.886454;stroke-width:0.264583"
       id="text350"
       transform="translate(0,-0.52916667)"><textPath
         xlink:href="#path459"
         startOffset="50%"
         id="textPath461"
         style="font-style:normal;font-variant:normal;font-weight:normal;font-stretch:normal;font-family:Lato;-inkscape-font-specification:Lato"><tspan
           id="tspan348"
           style="font-style:normal;font-variant:normal;font-weight:normal;font-stretch:normal;font-family:Lato;-inkscape-font-specification:Lato;fill:#ffffff;fill-opacity:0.886454;stroke-width:0.264583"
           rotate="0 0 0 0 0 0">JUDGE</tspan></textPath></text><path
       style="fill:none;stroke:none;stroke-width:0.264583px;stroke-linecap:butt;stroke-linejoin:miter;stroke-opacity:1"
       d="m 16.158593,85.699212 c 0,0 9.36665,-3.976389 20.353907,-3.976389 10.987256,0 20.024499,4.012536 20.024499,4.012536"
       id="path459" /></g></svg>
