<?xml version="1.0" encoding="UTF-8" standalone="no"?>
<!-- Created with Inkscape (http://www.inkscape.org/) -->

<svg
   width="1920"
   height="1080"
   viewBox="0 0 507.99999 285.75"
   version="1.1"
   id="svg5"
   xml:space="preserve"
   inkscape:version="1.2.2 (b0a8486541, 2022-12-01)"
   sodipodi:docname="tg_event06_風華.svg"
   inkscape:export-filename="../raster/tg_event06_風華.png"
   inkscape:export-xdpi="96"
   inkscape:export-ydpi="96"
   xmlns:inkscape="http://www.inkscape.org/namespaces/inkscape"
   xmlns:sodipodi="http://sodipodi.sourceforge.net/DTD/sodipodi-0.dtd"
   xmlns="http://www.w3.org/2000/svg"
   xmlns:svg="http://www.w3.org/2000/svg"><sodipodi:namedview
     id="namedview7"
     pagecolor="#ffffff"
     bordercolor="#666666"
     borderopacity="1.0"
     inkscape:showpageshadow="2"
     inkscape:pageopacity="0.0"
     inkscape:pagecheckerboard="0"
     inkscape:deskcolor="#d1d1d1"
     inkscape:document-units="mm"
     showgrid="false"
     inkscape:zoom="0.64693624"
     inkscape:cx="799.1514"
     inkscape:cy="486.91043"
     inkscape:window-width="2514"
     inkscape:window-height="1409"
     inkscape:window-x="46"
     inkscape:window-y="0"
     inkscape:window-maximized="1"
     inkscape:current-layer="layer1" /><defs
     id="defs2"><filter
       style="color-interpolation-filters:sRGB;"
       inkscape:label="Blur"
       id="filter4071"
       x="-0.025557728"
       y="-0.12913485"
       width="1.0511155"
       height="1.2582697"><feGaussianBlur
         stdDeviation="2.7000000000000002 2.7000000000000002"
         result="blur"
         id="feGaussianBlur4069" /></filter></defs><g
     inkscape:label="Layer 1"
     inkscape:groupmode="layer"
     id="layer1"><text
       xml:space="preserve"
       style="font-weight:bold;font-size:19.7556px;line-height:1.25;font-family:'Shantell Sans';-inkscape-font-specification:'Shantell Sans Bold';fill:#ff6d00;fill-opacity:1;stroke:#ff8b00;stroke-width:5;stroke-linejoin:round;stroke-dasharray:none;stroke-opacity:0.237052;paint-order:stroke fill markers;filter:url(#filter4071)"
       x="253.64439"
       y="123.1194"
       id="text3696"><tspan
         sodipodi:role="line"
         style="font-style:normal;font-variant:normal;font-weight:600;font-stretch:normal;font-size:19.7556px;font-family:'Shantell Sans';-inkscape-font-specification:'Shantell Sans Semi-Bold';text-align:center;text-anchor:middle;fill:#ff6d00;fill-opacity:1;stroke:#ff8b00;stroke-width:5;stroke-linejoin:round;stroke-dasharray:none;stroke-opacity:0.237052;paint-order:stroke fill markers"
         x="253.64439"
         y="123.1194"
         id="tspan3694">——We're already friends,</tspan><tspan
         sodipodi:role="line"
         style="font-style:normal;font-variant:normal;font-weight:600;font-stretch:normal;font-size:19.7556px;font-family:'Shantell Sans';-inkscape-font-specification:'Shantell Sans Semi-Bold';text-align:center;text-anchor:middle;fill:#ff6d00;fill-opacity:1;stroke:#ff8b00;stroke-width:5;stroke-linejoin:round;stroke-dasharray:none;stroke-opacity:0.237052;paint-order:stroke fill markers"
         x="253.64439"
         y="147.8139"
         id="tspan416">so you don't have to force yourself</tspan><tspan
         sodipodi:role="line"
         style="font-style:normal;font-variant:normal;font-weight:600;font-stretch:normal;font-size:19.7556px;font-family:'Shantell Sans';-inkscape-font-specification:'Shantell Sans Semi-Bold';text-align:center;text-anchor:middle;fill:#ff6d00;fill-opacity:1;stroke:#ff8b00;stroke-width:5;stroke-linejoin:round;stroke-dasharray:none;stroke-opacity:0.237052;paint-order:stroke fill markers"
         x="253.64439"
         y="172.50839"
         id="tspan418">to have good manners.</tspan></text><text
       xml:space="preserve"
       style="font-weight:bold;font-size:19.7556px;line-height:1.25;font-family:'Shantell Sans';-inkscape-font-specification:'Shantell Sans Bold';fill:#ff8163;fill-opacity:1;stroke:#ffffff;stroke-width:5;stroke-linecap:butt;stroke-linejoin:round;stroke-dasharray:none;stroke-opacity:1;paint-order:stroke fill markers"
       x="253.64439"
       y="123.1194"
       id="text241"><tspan
         sodipodi:role="line"
         style="font-style:normal;font-variant:normal;font-weight:600;font-stretch:normal;font-size:19.7556px;font-family:'Shantell Sans';-inkscape-font-specification:'Shantell Sans Semi-Bold';text-align:center;text-anchor:middle;fill:#ff8163;fill-opacity:1;stroke:#ffffff;stroke-width:5;stroke-linecap:butt;stroke-linejoin:round;stroke-dasharray:none;stroke-opacity:1;paint-order:stroke fill markers"
         x="253.64439"
         y="123.1194"
         id="tspan2956">——We're already friends,</tspan><tspan
         sodipodi:role="line"
         style="font-style:normal;font-variant:normal;font-weight:600;font-stretch:normal;font-size:19.7556px;font-family:'Shantell Sans';-inkscape-font-specification:'Shantell Sans Semi-Bold';text-align:center;text-anchor:middle;fill:#ff8163;fill-opacity:1;stroke:#ffffff;stroke-width:5;stroke-linecap:butt;stroke-linejoin:round;stroke-dasharray:none;stroke-opacity:1;paint-order:stroke fill markers"
         x="253.64439"
         y="147.8139"
         id="tspan406">so you don't have to force yourself</tspan><tspan
         sodipodi:role="line"
         style="font-style:normal;font-variant:normal;font-weight:600;font-stretch:normal;font-size:19.7556px;font-family:'Shantell Sans';-inkscape-font-specification:'Shantell Sans Semi-Bold';text-align:center;text-anchor:middle;fill:#ff8163;fill-opacity:1;stroke:#ffffff;stroke-width:5;stroke-linecap:butt;stroke-linejoin:round;stroke-dasharray:none;stroke-opacity:1;paint-order:stroke fill markers"
         x="253.64439"
         y="172.50839"
         id="tspan408">to have good manners.</tspan></text></g></svg>
